Test,"Option A"
Vinod,"Option A"
Kalyan,"Option A"
Kalyan,"Option A"
Kalyan,"Option A"

tamilselvi,"Option A"

tamilselvi,"Option A"

tan,Female,2019-01-01,,rtttta,,,,

tan,Female,2019-01-01,,rtttta,,,,

tan,Female,2019-01-01,,rtttta,,,,

tan,Female,2019-01-01,,rtttta,,,,

tan,Female,2019-01-01,,rtttta,,,,

tan,Female,2019-01-01,,rtttta,,,,

,,,,,,,,

,,,,,,,,

tamilselvi,100,,,,,,,

tamilselvi,100,,,,,,,

tamilselvi,100,,,,,,,

tamilselvi,Male,2019-01-01,,dharani@gmail.com,,"cbe
",,

tamilselvi,Male,2019-01-01,,dharani@gmail.com,,"cbe
",,

,Female,2019-01-01,Bsc,,,,,

,Female,2019-01-01,Bsc,,,,,

,,,Msc,,,,,MSc

,,,BCom,,,,,MCA

,,,BCom,,,,,MCA

,,,Msc,,,,,

,,,Msc,,,,,

,,,Msc,,,,,

,,,Msc,,,,,

,,,Msc,,,,,

,,,Msc,,,,,

,,,Msc,,,,,

,,,Msc,,,,,

,,,Msc,,,,,

,,,Msc,,,,,

,,,Msc,,,,,

tamilselvi,Female,2019-01-01,BCom,dharani@gmail.com,Singing,cbe,,,

priyanka,Female,2018-12-11,BCom,tamilselvi@gmail.com,Dancing,tripur,,MCA,6

,,,Msc,,,,,,5

priya,Female,2017-11-01,Bsc,priya@gmail.com,Dancing,mysore,,MCA,2

lavanya,Female,2018-01-17,BCom,lavu@gmail.com,Singing,mysore,,MCA,7

