id,table_name,field_name,field_type,field_size,is_auto
1,entity,id,int,11,1
2,entity,user_id,int,11,0
3,entity_attribute,id,int,11,1
4,entity_attribute,user_id,int,11,0
5,entity_attribute,code,char,4,0
6,entity_child,user_id,int,11,0
7,entity_child,code,varchar,15,0
8,entity_child,id,int,11,1
9,entity_child,status_code,char,4,0
10,entity_key_value,id,int,11,1
11,entity_key_value,user_id,int,11,0
12,page_info,id ,int,11,1
13,page_info,user_id,int,11,0
14,page_info,code,char,4,0
15,plan_upgrade_info,id,int,11,1
16,plan_upgrade_info,user_id,int,11,0
17,slab,id,int,11,1
18,slab,code,char,4,0
19,status_info,id,int,11,1
20,status_info,user_id,int,11,0
21,status_info,status_code,varchar,4,0
22,status_info,entity_code,char,2,0
23,sys_log,user_id,int,11,0
24,sys_log,page_code,char,4,0
25,user_info,user_role_id,int,11,0
26,user_permission,code,char,255,0
27,user_permission,id,int,11,1
28,user_permission,user_id,int,11,0
29,user_role,id,int,11,1
30,user_role,user_id,int,11,0
31,user_role_permission_matrix,id,int,11,1
32,user_role_permission_matrix,user_id,int,11,0
33,user_role_permission_matrix,user_role_id,int,11,0
34,user_role_permission_matrix,user_permission_id,int,11,0
35,view_info,id,int,11,1
36,view_info,view_id,int,11,0
37,view_info,viewed_by,int,11,0
38,view_info,user_role_id,int,11,0
