id,child_table,child_field,parent_table,parent_field
1,entity_attribute,entity_code,entity,code
2,entity_key_value,entity_code,entity,code
3,entity_child,entity_code,entity,code
4,eav_addon_date,parent_id,entity_child,id
5,eav_addon_date,ea_code,entity_attribute,code
6,eav_addon_ec_id,parent_id,entity_child,id
7,eav_addon_ec_id,ea_code,entity_attribute,code
8,eav_addon_ec_id,ec_id,entity_child,id
9,eav_addon_text,parent_id,entity_child,id
10,eav_addon_text,ea_code,entity_attribute,code
11,eav_addon_varchar,parent_id,entity_child,id
12,eav_addon_varchar,ea_code,entity_attribute,code
13,ecb_av_addon_varchar,parent_id,entity_child_base,id
14,ecb_av_addon_varchar,ea_code,entity_attribute,code
15,ecb_parent_child_matrix,ecb_parent_id,entity_child_base,id
16,ecb_parent_child_matrix,ecb_child_id,entity_child_base,id
17,exav_addon_date,parent_id,entity_child,id
18,exav_addon_date,exa_code,entity_child_base,token
19,exav_addon_decimal,parent_id,entity_child,id
20,exav_addon_decimal,exa_token,entity_child_base,token
21,exav_addon_ec_id,parent_id,entity_child,id
22,exav_addon_ec_id,exa_token,entity_child_base,token
23,exav_addon_ec_id,ec_id,entity_child,id
24,exav_addon_text,parent_id,entity_child,id
25,exav_addon_text,exa_token,entity_child_base,token
26,exav_addon_varchar,parent_id,entity_child,id
27,exav_addon_varchar,exa_token,entity_child_base,token
28,user_role_permission_matrix,user_role_id,user_role,id
29,user_role_permission_matrix,user_permission_id,user_permission,id
30,user_info,user_role_id,user_role,id
